…
\#PROMEDIO DE VENTAS POR SUCURSAL

``` r
datos %>%  group_by(nombre_tienda) %>% 
  summarise(promedio_ventas=mean(ventas)) %>% 
  arrange(-promedio_ventas)
```

    ## # A tibble: 188 × 2
    ##    nombre_tienda                      promedio_ventas
    ##    <chr>                                        <dbl>
    ##  1 Sam's Club 6514 / Waterloo                    516.
    ##  2 Sam's Club 8238 / Davenport                   486.
    ##  3 Sam's Club 8162 / Cedar Rapids                468.
    ##  4 Artisan Grain Distillery                      419.
    ##  5 Hilltop Grocery                               302.
    ##  6 Sam's Food                                    209.
    ##  7 Sycamore Convenience                          187.
    ##  8 Fareway Stores #151 / Cedar Rapids            186.
    ##  9 EZ Stop / Davenport                           178.
    ## 10 Logan Convenience Store                       175.
    ## # ℹ 178 more rows
…
``` r
##¿Cuál es el top 5 de productos más vendidos, para el 2016 y 2017, por ciudad? 
datos %>% filter(anio==2016 | anio==2017) %>% 
  group_by(ciudad,anio,Item.Description) %>% 
  summarise(Total_Productos=sum(Bottles.Sold))%>% 
  arrange(desc(Total_Productos)) %>% 
  group_by(ciudad,anio) %>% 
  slice_head(n=5)
```

    ## `summarise()` has grouped output by 'ciudad', 'anio'. You can override using
    ## the `.groups` argument.

    ## # A tibble: 30 × 4
    ## # Groups:   ciudad, anio [6]
    ##    ciudad        anio Item.Description              Total_Productos
    ##    <chr>        <dbl> <chr>                                   <int>
    ##  1 CEDAR RAPIDS  2016 Malibu Coconut Rum                       8114
    ##  2 CEDAR RAPIDS  2016 Uv Blue (raspberry) Vodka                6178
    ##  3 CEDAR RAPIDS  2016 New Amsterdam Peach                      4677
    ##  4 CEDAR RAPIDS  2016 Bailey's Original Irish Cream            3471
    ##  5 CEDAR RAPIDS  2016 Rumchata                                 3162
    ##  6 CEDAR RAPIDS  2017 Malibu Coconut Rum                        249
    ##  7 CEDAR RAPIDS  2017 Bailey's Original Irish Cream             170
    ##  8 CEDAR RAPIDS  2017 Rumchata                                  147
    ##  9 CEDAR RAPIDS  2017 Bacardi Limon                             116
    ## 10 CEDAR RAPIDS  2017 Bailey's Salted Caramel                    82
    ## # ℹ 20 more rows
